\relax 
\@writefile{toc}{\contentsline {section}{\numberline {1}Gravity}{1}}
\@writefile{toc}{\contentsline {section}{\numberline {2}Water Tower}{1}}
\@writefile{toc}{\contentsline {section}{\numberline {3}Summary}{1}}
