\relax 
\providecommand\hyper@newdestlabel[2]{}
\@writefile{toc}{\contentsline {part}{II\hspace  {1em}Building Blocks Circle}{12}{part.2}}
\@writefile{toc}{\contentsline {chapter}{\numberline {1}Circle Building Blocks}{13}{chapter.2.1}}
\@writefile{lof}{\addvspace {10\p@ }}
\@writefile{lot}{\addvspace {10\p@ }}
\@setckpt{Circles/BuildingBlocks/Main}{
\setcounter{page}{14}
\setcounter{equation}{0}
\setcounter{enumi}{3}
\setcounter{enumii}{0}
\setcounter{enumiii}{0}
\setcounter{enumiv}{0}
\setcounter{footnote}{0}
\setcounter{mpfootnote}{0}
\setcounter{part}{2}
\setcounter{chapter}{1}
\setcounter{section}{0}
\setcounter{subsection}{5}
\setcounter{subsubsection}{0}
\setcounter{paragraph}{0}
\setcounter{subparagraph}{0}
\setcounter{figure}{0}
\setcounter{table}{0}
\setcounter{Item}{22}
\setcounter{Hfootnote}{0}
\setcounter{bookmark@seq@number}{28}
\setcounter{section@level}{2}
}
