PWD /Users/mradams/Physics/Curriculum/Physics Basics
INPUT /usr/local/texlive/2015/texmf.cnf
INPUT /usr/local/texlive/2015/texmf-dist/web2c/texmf.cnf
INPUT /usr/local/texlive/2015/texmf-var/web2c/pdftex/pdflatex.fmt
INPUT Units.tex
OUTPUT /Users/mradams/Physics/Curriculum/Physics Basics/tmp/Units.log
INPUT /usr/local/texlive/2015/texmf-dist/tex/latex/base/article.cls
INPUT /usr/local/texlive/2015/texmf-dist/tex/latex/base/article.cls
INPUT /usr/local/texlive/2015/texmf-dist/tex/latex/base/size10.clo
INPUT /usr/local/texlive/2015/texmf-dist/tex/latex/base/size10.clo
INPUT /usr/local/texlive/2015/texmf-dist/tex/latex/amsmath/amsmath.sty
INPUT /usr/local/texlive/2015/texmf-dist/tex/latex/amsmath/amsmath.sty
INPUT /usr/local/texlive/2015/texmf-dist/tex/latex/amsmath/amstext.sty
INPUT /usr/local/texlive/2015/texmf-dist/tex/latex/amsmath/amstext.sty
INPUT /usr/local/texlive/2015/texmf-dist/tex/latex/amsmath/amsgen.sty
INPUT /usr/local/texlive/2015/texmf-dist/tex/latex/amsmath/amsgen.sty
INPUT /usr/local/texlive/2015/texmf-dist/tex/latex/amsmath/amsbsy.sty
INPUT /usr/local/texlive/2015/texmf-dist/tex/latex/amsmath/amsbsy.sty
INPUT /usr/local/texlive/2015/texmf-dist/tex/latex/amsmath/amsopn.sty
INPUT /usr/local/texlive/2015/texmf-dist/tex/latex/amsmath/amsopn.sty
INPUT /usr/local/texlive/2015/texmf-dist/tex/latex/siunitx/siunitx.sty
INPUT /usr/local/texlive/2015/texmf-dist/tex/latex/siunitx/siunitx.sty
INPUT /usr/local/texlive/2015/texmf-dist/tex/latex/l3kernel/expl3.sty
INPUT /usr/local/texlive/2015/texmf-dist/tex/latex/l3kernel/expl3.sty
INPUT /usr/local/texlive/2015/texmf-dist/tex/latex/l3kernel/expl3-code.tex
INPUT /usr/local/texlive/2015/texmf-dist/tex/latex/l3kernel/expl3-code.tex
INPUT /usr/local/texlive/2015/texmf-dist/tex/latex/l3kernel/l3unicode-data.def
INPUT /usr/local/texlive/2015/texmf-dist/tex/latex/l3kernel/l3unicode-data.def
INPUT /usr/local/texlive/2015/texmf-dist/tex/latex/l3kernel/l3pdfmode.def
INPUT /usr/local/texlive/2015/texmf-dist/tex/latex/l3kernel/l3pdfmode.def
INPUT /usr/local/texlive/2015/texmf-dist/tex/latex/l3packages/xparse/xparse.sty
INPUT /usr/local/texlive/2015/texmf-dist/tex/latex/l3packages/xparse/xparse.sty
INPUT /usr/local/texlive/2015/texmf-dist/tex/latex/tools/array.sty
INPUT /usr/local/texlive/2015/texmf-dist/tex/latex/tools/array.sty
INPUT /usr/local/texlive/2015/texmf-dist/tex/latex/l3packages/l3keys2e/l3keys2e.sty
INPUT /usr/local/texlive/2015/texmf-dist/tex/latex/l3packages/l3keys2e/l3keys2e.sty
INPUT /usr/local/texlive/2015/texmf-dist/tex/latex/beamer/translator/translator.sty
INPUT /usr/local/texlive/2015/texmf-dist/tex/latex/beamer/translator/translator.sty
INPUT /usr/local/texlive/2015/texmf-dist/tex/latex/beamer/translator/translator.sty
INPUT /usr/local/texlive/2015/texmf-dist/tex/latex/graphics/keyval.sty
INPUT /usr/local/texlive/2015/texmf-dist/tex/latex/graphics/keyval.sty
INPUT /usr/local/texlive/2015/texmf-dist/tex/latex/beamer/translator/translator-language-mappings.tex
INPUT /usr/local/texlive/2015/texmf-dist/tex/latex/beamer/translator/translator-language-mappings.tex
INPUT /usr/local/texlive/2015/texmf-dist/tex/latex/hyperref/hyperref.sty
INPUT /usr/local/texlive/2015/texmf-dist/tex/latex/hyperref/hyperref.sty
INPUT /usr/local/texlive/2015/texmf-dist/tex/generic/oberdiek/hobsub-hyperref.sty
INPUT /usr/local/texlive/2015/texmf-dist/tex/generic/oberdiek/hobsub-hyperref.sty
INPUT /usr/local/texlive/2015/texmf-dist/tex/generic/oberdiek/hobsub-hyperref.sty
INPUT /usr/local/texlive/2015/texmf-dist/tex/generic/oberdiek/hobsub-generic.sty
INPUT /usr/local/texlive/2015/texmf-dist/tex/generic/oberdiek/hobsub-generic.sty
INPUT /usr/local/texlive/2015/texmf-dist/tex/generic/ifxetex/ifxetex.sty
INPUT /usr/local/texlive/2015/texmf-dist/tex/generic/ifxetex/ifxetex.sty
INPUT /usr/local/texlive/2015/texmf-dist/tex/latex/oberdiek/auxhook.sty
INPUT /usr/local/texlive/2015/texmf-dist/tex/latex/oberdiek/auxhook.sty
INPUT /usr/local/texlive/2015/texmf-dist/tex/latex/oberdiek/kvoptions.sty
INPUT /usr/local/texlive/2015/texmf-dist/tex/latex/oberdiek/kvoptions.sty
INPUT /usr/local/texlive/2015/texmf-dist/tex/latex/hyperref/pd1enc.def
INPUT /usr/local/texlive/2015/texmf-dist/tex/latex/hyperref/pd1enc.def
INPUT /usr/local/texlive/2015/texmf-dist/tex/latex/latexconfig/hyperref.cfg
INPUT /usr/local/texlive/2015/texmf-dist/tex/latex/latexconfig/hyperref.cfg
INPUT /usr/local/texlive/2015/texmf-dist/tex/latex/url/url.sty
INPUT /usr/local/texlive/2015/texmf-dist/tex/latex/url/url.sty
INPUT /usr/local/texlive/2015/texmf-dist/tex/latex/hyperref/hpdftex.def
INPUT /usr/local/texlive/2015/texmf-dist/tex/latex/hyperref/hpdftex.def
INPUT /usr/local/texlive/2015/texmf-dist/tex/latex/oberdiek/rerunfilecheck.sty
INPUT /usr/local/texlive/2015/texmf-dist/tex/latex/oberdiek/rerunfilecheck.sty
INPUT /usr/local/texlive/2015/texmf-dist/tex/latex/cancel/cancel.sty
INPUT /usr/local/texlive/2015/texmf-dist/tex/latex/cancel/cancel.sty
INPUT /Users/mradams/Physics/Curriculum/Physics Basics/tmp/Units.aux
INPUT /Users/mradams/Physics/Curriculum/Physics Basics/tmp/Units.aux
OUTPUT /Users/mradams/Physics/Curriculum/Physics Basics/tmp/Units.aux
INPUT /usr/local/texlive/2015/texmf-dist/tex/latex/beamer/translator/dicts/translator-basic-dictionary/translator-basic-dictionary-English.dict
INPUT /usr/local/texlive/2015/texmf-dist/tex/latex/beamer/translator/dicts/translator-basic-dictionary/translator-basic-dictionary-English.dict
INPUT /usr/local/texlive/2015/texmf-dist/tex/latex/siunitx/siunitx-abbreviations.cfg
INPUT /usr/local/texlive/2015/texmf-dist/tex/latex/siunitx/siunitx-abbreviations.cfg
INPUT /usr/local/texlive/2015/texmf-dist/tex/latex/hyperref/nameref.sty
INPUT /usr/local/texlive/2015/texmf-dist/tex/latex/hyperref/nameref.sty
INPUT /usr/local/texlive/2015/texmf-dist/tex/generic/oberdiek/gettitlestring.sty
INPUT /usr/local/texlive/2015/texmf-dist/tex/generic/oberdiek/gettitlestring.sty
INPUT /Users/mradams/Physics/Curriculum/Physics Basics/tmp/Units.out
INPUT /Users/mradams/Physics/Curriculum/Physics Basics/tmp/Units.out
INPUT /Users/mradams/Physics/Curriculum/Physics Basics/tmp/Units.out
INPUT /Users/mradams/Physics/Curriculum/Physics Basics/tmp/Units.out
OUTPUT /Users/mradams/Physics/Curriculum/Physics Basics/tmp/Units.pdf
INPUT /Users/mradams/Physics/Curriculum/Physics Basics/tmp/Units.out
INPUT /Users/mradams/Physics/Curriculum/Physics Basics/tmp/Units.out
OUTPUT /Users/mradams/Physics/Curriculum/Physics Basics/tmp/Units.out
INPUT /usr/local/texlive/2015/texmf-dist/fonts/map/fontname/texfonts.map
INPUT /usr/local/texlive/2015/texmf-dist/fonts/tfm/public/amsfonts/cmextra/cmex7.tfm
INPUT /usr/local/texlive/2015/texmf-dist/fonts/tfm/public/amsfonts/cmextra/cmex7.tfm
INPUT /usr/local/texlive/2015/texmf-dist/fonts/tfm/public/cm/cmss10.tfm
INPUT /usr/local/texlive/2015/texmf-dist/fonts/tfm/public/cm/cmss8.tfm
INPUT /usr/local/texlive/2015/texmf-dist/fonts/tfm/public/cm/cmss8.tfm
INPUT /usr/local/texlive/2015/texmf-dist/fonts/tfm/public/cm/cmtt10.tfm
INPUT /usr/local/texlive/2015/texmf-dist/fonts/tfm/public/cm/cmtt8.tfm
INPUT /usr/local/texlive/2015/texmf-dist/fonts/tfm/public/cm/cmtt8.tfm
INPUT /usr/local/texlive/2015/texmf-dist/fonts/tfm/public/cm/cmr12.tfm
INPUT /usr/local/texlive/2015/texmf-dist/fonts/tfm/public/cm/cmbx12.tfm
INPUT /usr/local/texlive/2015/texmf-dist/fonts/tfm/public/cm/cmr12.tfm
INPUT /usr/local/texlive/2015/texmf-dist/fonts/tfm/public/cm/cmbx12.tfm
INPUT /usr/local/texlive/2015/texmf-var/fonts/map/pdftex/updmap/pdftex.map
INPUT /usr/local/texlive/2015/texmf-dist/fonts/tfm/public/cm/cmbx10.tfm
INPUT /Users/mradams/Physics/Curriculum/Physics Basics/tmp/Units.aux
INPUT /Users/mradams/Physics/Curriculum/Physics Basics/tmp/Units.out
INPUT /Users/mradams/Physics/Curriculum/Physics Basics/tmp/Units.out
INPUT /usr/local/texlive/2015/texmf-dist/fonts/type1/public/amsfonts/cm/cmbx10.pfb
INPUT /usr/local/texlive/2015/texmf-dist/fonts/type1/public/amsfonts/cm/cmbx12.pfb
INPUT /usr/local/texlive/2015/texmf-dist/fonts/type1/public/amsfonts/cm/cmmi10.pfb
INPUT /usr/local/texlive/2015/texmf-dist/fonts/type1/public/amsfonts/cm/cmr10.pfb
INPUT /usr/local/texlive/2015/texmf-dist/fonts/type1/public/amsfonts/cm/cmtt10.pfb
INPUT /usr/local/texlive/2015/texmf-dist/fonts/type1/public/amsfonts/latxfont/line10.pfb
