\relax 
\providecommand\hyper@newdestlabel[2]{}
\providecommand\HyperFirstAtBeginDocument{\AtBeginDocument}
\HyperFirstAtBeginDocument{\ifx\hyper@anchor\@undefined
\global\let\oldcontentsline\contentsline
\gdef\contentsline#1#2#3#4{\oldcontentsline{#1}{#2}{#3}}
\global\let\oldnewlabel\newlabel
\gdef\newlabel#1#2{\newlabelxx{#1}#2}
\gdef\newlabelxx#1#2#3#4#5#6{\oldnewlabel{#1}{{#2}{#3}}}
\AtEndDocument{\ifx\hyper@anchor\@undefined
\let\contentsline\oldcontentsline
\let\newlabel\oldnewlabel
\fi}
\fi}
\global\let\hyper@last\relax 
\gdef\HyperFirstAtBeginDocument#1{#1}
\providecommand\HyField@AuxAddToFields[1]{}
\providecommand\HyField@AuxAddToCoFields[2]{}
\@writefile{toc}{\contentsline {section}{\numberline {1}Units}{1}{section.1}}
\@writefile{toc}{\contentsline {subsection}{\numberline {1.1}What is a Unit}{1}{subsection.1.1}}
\@writefile{toc}{\contentsline {subsection}{\numberline {1.2}Units Convey Scale}{1}{subsection.1.2}}
\@writefile{toc}{\contentsline {subsection}{\numberline {1.3}Measurement and Units}{2}{subsection.1.3}}
\@writefile{toc}{\contentsline {section}{\numberline {2}British Units}{3}{section.2}}
\@writefile{toc}{\contentsline {section}{\numberline {3}SI Units}{3}{section.3}}
\@writefile{toc}{\contentsline {subsection}{\numberline {3.1}Length}{3}{subsection.3.1}}
\@writefile{toc}{\contentsline {subsection}{\numberline {3.2}Mass}{4}{subsection.3.2}}
\@writefile{toc}{\contentsline {subsection}{\numberline {3.3}Time}{4}{subsection.3.3}}
\@writefile{toc}{\contentsline {subsection}{\numberline {3.4}Other Base Units}{4}{subsection.3.4}}
\@writefile{toc}{\contentsline {subsection}{\numberline {3.5}Prefixes}{4}{subsection.3.5}}
\@writefile{toc}{\contentsline {subsubsection}{\numberline {3.5.1}Practice}{4}{subsubsection.3.5.1}}
\@writefile{toc}{\contentsline {section}{\numberline {4}Natural Units}{4}{section.4}}
\@writefile{toc}{\contentsline {section}{\numberline {5}cgs Units}{4}{section.5}}
\@writefile{toc}{\contentsline {section}{\numberline {6}Converting Units}{4}{section.6}}
\@writefile{toc}{\contentsline {subsection}{\numberline {6.1}Example}{5}{subsection.6.1}}
\@writefile{toc}{\contentsline {section}{\numberline {7}Preliminaries}{6}{section.7}}
